^C:\USERS\KILLJOYME\SOURCE\REPOS\WINDOWSF\DEBUG\.NETFRAMEWORK,VERSION=V4.7.2.ASSEMBLYATTRIBUTES.OBJ|C:\USERS\KILLJOYME\SOURCE\REPOS\WINDOWSF\DEBUG\MYFORM.OBJ|C:\USERS\KILLJOYME\SOURCE\REPOS\WINDOWSF\DEBUG\MYFORM1.OBJ|C:\USERS\KILLJOYME\SOURCE\REPOS\WINDOWSF\DEBUG\MYFORM2.OBJ|C:\USERS\KILLJOYME\SOURCE\REPOS\WINDOWSF\DEBUG\MYFORM3.OBJ|C:\USERS\KILLJOYME\SOURCE\REPOS\WINDOWSF\DEBUG\MYFORM4.OBJ|C:\USERS\KILLJOYME\SOURCE\REPOS\WINDOWSF\DEBUG\MYFORM5.OBJ|C:\USERS\KILLJOYME\SOURCE\REPOS\WINDOWSF\DEBUG\MYFORM6.OBJ
/OUT:"C:\USERS\KILLJOYME\SOURCE\REPOS\WINDOWSF\DEBUG\WINDOWSF.EXE" /INCREMENTAL /NOLOGO /ASSEMBLYRESOURCE:DEBUG\WINDOWSF.MYFORM.RESOURCES /ASSEMBLYRESOURCE:DEBUG\WINDOWSF.MYFORM1.RESOURCES /ASSEMBLYRESOURCE:DEBUG\WINDOWSF.MYFORM2.RESOURCES /ASSEMBLYRESOURCE:DEBUG\WINDOWSF.MYFORM3.RESOURCES /ASSEMBLYRESOURCE:DEBUG\WINDOWSF.MYFORM4.RESOURCES /ASSEMBLYRESOURCE:DEBUG\WINDOWSF.MYFORM5.RESOURCES /ASSEMBLYRESOURCE:DEBUG\WINDOWSF.MYFORM6.RESOURCES /MANIFEST /MANIFESTUAC:"level='asInvoker' uiAccess='false'" /manifest:embed /DEBUG:FULL /PDB:"C:\USERS\KILLJOYME\SOURCE\REPOS\WINDOWSF\DEBUG\WINDOWSF.PDB" /ASSEMBLYDEBUG /TLBID:1 /DYNAMICBASE /FIXED:NO /NXCOMPAT /MACHINE:X86 DEBUG\MYFORM.OBJ
DEBUG\MYFORM1.OBJ
DEBUG\MYFORM2.OBJ
DEBUG\MYFORM3.OBJ
DEBUG\MYFORM4.OBJ
DEBUG\MYFORM5.OBJ
DEBUG\MYFORM6.OBJ
"DEBUG\.NETFRAMEWORK,VERSION=V4.7.2.ASSEMBLYATTRIBUTES.OBJ"
