^C:\USERS\KILLJOYME\SOURCE\REPOS\WINDOWSF\DEBUG\.NETFRAMEWORK,VERSION=V4.7.2.ASSEMBLYATTRIBUTES.OBJ|C:\USERS\KILLJOYME\SOURCE\REPOS\WINDOWSF\DEBUG\MYFORM.OBJ|C:\USERS\KILLJOYME\SOURCE\REPOS\WINDOWSF\DEBUG\MYFORM1.OBJ|C:\USERS\KILLJOYME\SOURCE\REPOS\WINDOWSF\DEBUG\MYFORM2.OBJ|C:\USERS\KILLJOYME\SOURCE\REPOS\WINDOWSF\DEBUG\MYFORM3.OBJ|C:\USERS\KILLJOYME\SOURCE\REPOS\WINDOWSF\DEBUG\MYFORM4.OBJ|C:\USERS\KILLJOYME\SOURCE\REPOS\WINDOWSF\DEBUG\MYFORM5.OBJ|C:\USERS\KILLJOYME\SOURCE\REPOS\WINDOWSF\DEBUG\MYFORM6.OBJ
C:\USERS\KILLJOYME\SOURCE\REPOS\WINDOWSF\DEBUG\MYFORM.OBJ
C:\USERS\KILLJOYME\SOURCE\REPOS\WINDOWSF\DEBUG\MYFORM1.OBJ
C:\USERS\KILLJOYME\SOURCE\REPOS\WINDOWSF\DEBUG\MYFORM2.OBJ
C:\USERS\KILLJOYME\SOURCE\REPOS\WINDOWSF\DEBUG\MYFORM3.OBJ
C:\USERS\KILLJOYME\SOURCE\REPOS\WINDOWSF\DEBUG\MYFORM4.OBJ
C:\USERS\KILLJOYME\SOURCE\REPOS\WINDOWSF\DEBUG\MYFORM5.OBJ
C:\USERS\KILLJOYME\SOURCE\REPOS\WINDOWSF\DEBUG\MYFORM6.OBJ
C:\USERS\KILLJOYME\SOURCE\REPOS\WINDOWSF\DEBUG\.NETFRAMEWORK,VERSION=V4.7.2.ASSEMBLYATTRIBUTES.OBJ
C:\WINDOWS\GLOBALIZATION\SORTING\SORTDEFAULT.NLS
D:\PROGRAM FILES (X86)\VISUAL\VC\TOOLS\MSVC\14.26.28801\BIN\HOSTX86\X86\1049\LINKUI.DLL
C:\WINDOWS\SYSTEM32\TZRES.DLL
C:\WINDOWS\MICROSOFT.NET\FRAMEWORK\V2.0.50727\MSCORWKS.DLL
C:\WINDOWS\MICROSOFT.NET\FRAMEWORK\V4.0.30319\CLR.DLL
D:\PROGRAM FILES (X86)\VISUAL\VC\TOOLS\MSVC\14.26.28801\BIN\HOSTX86\X86\LINK.EXE.CONFIG
D:\PROGRAM FILES (X86)\VISUAL\VC\TOOLS\MSVC\14.26.28801\LIB\X86\MSVCPRTD.LIB
C:\PROGRAM FILES (X86)\WINDOWS KITS\10\LIB\10.0.18362.0\UM\X86\UUID.LIB
D:\PROGRAM FILES (X86)\VISUAL\VC\TOOLS\MSVC\14.26.28801\LIB\X86\COMSUPP.LIB
C:\PROGRAM FILES (X86)\WINDOWS KITS\10\LIB\10.0.18362.0\UM\X86\OLEAUT32.LIB
D:\PROGRAM FILES (X86)\VISUAL\VC\TOOLS\MSVC\14.26.28801\LIB\X86\MSVCRTD.LIB
D:\PROGRAM FILES (X86)\VISUAL\VC\TOOLS\MSVC\14.26.28801\LIB\X86\OLDNAMES.LIB
D:\PROGRAM FILES (X86)\VISUAL\VC\TOOLS\MSVC\14.26.28801\LIB\X86\MSVCMRTD.LIB
C:\PROGRAM FILES (X86)\WINDOWS KITS\NETFXSDK\4.8\LIB\UM\X86\MSCOREE.LIB
C:\PROGRAM FILES (X86)\WINDOWS KITS\10\LIB\10.0.18362.0\UM\X86\KERNEL32.LIB
D:\PROGRAM FILES (X86)\VISUAL\VC\TOOLS\MSVC\14.26.28801\LIB\X86\VCRUNTIMED.LIB
C:\PROGRAM FILES (X86)\WINDOWS KITS\10\LIB\10.0.18362.0\UCRT\X86\UCRTD.LIB
D:\PROGRAM FILES (X86)\VISUAL\VC\TOOLS\MSVC\14.26.28801\BIN\HOSTX86\X86\CVTRES.EXE
C:\USERS\KILLJOYME\SOURCE\REPOS\WINDOWSF\DEBUG\WINDOWSF.MYFORM.RESOURCES
C:\USERS\KILLJOYME\SOURCE\REPOS\WINDOWSF\DEBUG\WINDOWSF.MYFORM1.RESOURCES
C:\USERS\KILLJOYME\SOURCE\REPOS\WINDOWSF\DEBUG\WINDOWSF.MYFORM2.RESOURCES
C:\USERS\KILLJOYME\SOURCE\REPOS\WINDOWSF\DEBUG\WINDOWSF.MYFORM3.RESOURCES
C:\USERS\KILLJOYME\SOURCE\REPOS\WINDOWSF\DEBUG\WINDOWSF.MYFORM4.RESOURCES
C:\USERS\KILLJOYME\SOURCE\REPOS\WINDOWSF\DEBUG\WINDOWSF.MYFORM5.RESOURCES
C:\USERS\KILLJOYME\SOURCE\REPOS\WINDOWSF\DEBUG\WINDOWSF.MYFORM6.RESOURCES
