^C:\USERS\KILLJOYME\SOURCE\REPOS\WINDOWSF\DEBUG\.NETFRAMEWORK,VERSION=V4.7.2.ASSEMBLYATTRIBUTES.OBJ|C:\USERS\KILLJOYME\SOURCE\REPOS\WINDOWSF\DEBUG\MYFORM.OBJ|C:\USERS\KILLJOYME\SOURCE\REPOS\WINDOWSF\DEBUG\MYFORM1.OBJ|C:\USERS\KILLJOYME\SOURCE\REPOS\WINDOWSF\DEBUG\MYFORM2.OBJ|C:\USERS\KILLJOYME\SOURCE\REPOS\WINDOWSF\DEBUG\MYFORM3.OBJ|C:\USERS\KILLJOYME\SOURCE\REPOS\WINDOWSF\DEBUG\MYFORM4.OBJ|C:\USERS\KILLJOYME\SOURCE\REPOS\WINDOWSF\DEBUG\MYFORM5.OBJ|C:\USERS\KILLJOYME\SOURCE\REPOS\WINDOWSF\DEBUG\MYFORM6.OBJ
C:\USERS\KILLJOYME\SOURCE\REPOS\WINDOWSF\DEBUG\WINDOWSF.EXE
C:\USERS\KILLJOYME\SOURCE\REPOS\WINDOWSF\DEBUG\WINDOWSF.PDB
