^C:\Users\killjoyme\source\repos\WindowsF\WindowsF.vcxproj
C:\Users\killjoyme\source\repos\WindowsF\Debug\WindowsF.MyForm.resources
^C:\Users\killjoyme\source\repos\WindowsF\WindowsF.vcxproj
C:\Users\killjoyme\source\repos\WindowsF\Debug\WindowsF.MyForm.resources
^C:\Users\killjoyme\source\repos\WindowsF\WindowsF.vcxproj
C:\Users\killjoyme\source\repos\WindowsF\Debug\WindowsF.MyForm.resources
^C:\Users\killjoyme\source\repos\WindowsF\WindowsF.vcxproj
C:\Users\killjoyme\source\repos\WindowsF\Debug\WindowsF.MyForm.resources
^C:\Users\killjoyme\source\repos\WindowsF\WindowsF.vcxproj
C:\Users\killjoyme\source\repos\WindowsF\Debug\WindowsF.MyForm.resources
^C:\Users\killjoyme\source\repos\WindowsF\WindowsF.vcxproj
C:\Users\killjoyme\source\repos\WindowsF\Debug\WindowsF.MyForm.resources
^C:\Users\killjoyme\source\repos\WindowsF\WindowsF.vcxproj
C:\Users\killjoyme\source\repos\WindowsF\Debug\WindowsF.MyForm.resources
C:\Users\killjoyme\source\repos\WindowsF\Debug\WindowsF.MyForm1.resources
^C:\Users\killjoyme\source\repos\WindowsF\WindowsF.vcxproj
C:\Users\killjoyme\source\repos\WindowsF\Debug\WindowsF.MyForm.resources
C:\Users\killjoyme\source\repos\WindowsF\Debug\WindowsF.MyForm1.resources
^C:\Users\killjoyme\source\repos\WindowsF\WindowsF.vcxproj
C:\Users\killjoyme\source\repos\WindowsF\Debug\WindowsF.MyForm.resources
C:\Users\killjoyme\source\repos\WindowsF\Debug\WindowsF.MyForm1.resources
^C:\Users\killjoyme\source\repos\WindowsF\WindowsF.vcxproj
C:\Users\killjoyme\source\repos\WindowsF\Debug\WindowsF.MyForm.resources
C:\Users\killjoyme\source\repos\WindowsF\Debug\WindowsF.MyForm1.resources
^C:\Users\killjoyme\source\repos\WindowsF\WindowsF.vcxproj
C:\Users\killjoyme\source\repos\WindowsF\Debug\WindowsF.MyForm.resources
C:\Users\killjoyme\source\repos\WindowsF\Debug\WindowsF.MyForm1.resources
^C:\Users\killjoyme\source\repos\WindowsF\WindowsF.vcxproj
C:\Users\killjoyme\source\repos\WindowsF\Debug\WindowsF.MyForm.resources
C:\Users\killjoyme\source\repos\WindowsF\Debug\WindowsF.MyForm1.resources
^C:\Users\killjoyme\source\repos\WindowsF\WindowsF.vcxproj
C:\Users\killjoyme\source\repos\WindowsF\Debug\WindowsF.MyForm.resources
C:\Users\killjoyme\source\repos\WindowsF\Debug\WindowsF.MyForm1.resources
^C:\Users\killjoyme\source\repos\WindowsF\WindowsF.vcxproj
C:\Users\killjoyme\source\repos\WindowsF\Debug\WindowsF.MyForm.resources
C:\Users\killjoyme\source\repos\WindowsF\Debug\WindowsF.MyForm1.resources
^C:\Users\killjoyme\source\repos\WindowsF\WindowsF.vcxproj
C:\Users\killjoyme\source\repos\WindowsF\Debug\WindowsF.MyForm.resources
C:\Users\killjoyme\source\repos\WindowsF\Debug\WindowsF.MyForm1.resources
^C:\Users\killjoyme\source\repos\WindowsF\WindowsF.vcxproj
C:\Users\killjoyme\source\repos\WindowsF\Debug\WindowsF.MyForm.resources
C:\Users\killjoyme\source\repos\WindowsF\Debug\WindowsF.MyForm1.resources
^C:\Users\killjoyme\source\repos\WindowsF\WindowsF.vcxproj
C:\Users\killjoyme\source\repos\WindowsF\Debug\WindowsF.MyForm.resources
C:\Users\killjoyme\source\repos\WindowsF\Debug\WindowsF.MyForm1.resources
^C:\Users\killjoyme\source\repos\WindowsF\WindowsF.vcxproj
C:\Users\killjoyme\source\repos\WindowsF\Debug\WindowsF.MyForm.resources
C:\Users\killjoyme\source\repos\WindowsF\Debug\WindowsF.MyForm1.resources
^C:\Users\killjoyme\source\repos\WindowsF\WindowsF.vcxproj
C:\Users\killjoyme\source\repos\WindowsF\Debug\WindowsF.MyForm.resources
C:\Users\killjoyme\source\repos\WindowsF\Debug\WindowsF.MyForm1.resources
^C:\Users\killjoyme\source\repos\WindowsF\WindowsF.vcxproj
C:\Users\killjoyme\source\repos\WindowsF\Debug\WindowsF.MyForm.resources
C:\Users\killjoyme\source\repos\WindowsF\Debug\WindowsF.MyForm1.resources
^C:\Users\killjoyme\source\repos\WindowsF\WindowsF.vcxproj
C:\Users\killjoyme\source\repos\WindowsF\Debug\WindowsF.MyForm.resources
C:\Users\killjoyme\source\repos\WindowsF\Debug\WindowsF.MyForm1.resources
^C:\Users\killjoyme\source\repos\WindowsF\WindowsF.vcxproj
C:\Users\killjoyme\source\repos\WindowsF\Debug\WindowsF.MyForm.resources
C:\Users\killjoyme\source\repos\WindowsF\Debug\WindowsF.MyForm1.resources
^C:\Users\killjoyme\source\repos\WindowsF\WindowsF.vcxproj
C:\Users\killjoyme\source\repos\WindowsF\Debug\WindowsF.MyForm.resources
C:\Users\killjoyme\source\repos\WindowsF\Debug\WindowsF.MyForm1.resources
^C:\Users\killjoyme\source\repos\WindowsF\WindowsF.vcxproj
C:\Users\killjoyme\source\repos\WindowsF\Debug\WindowsF.MyForm.resources
C:\Users\killjoyme\source\repos\WindowsF\Debug\WindowsF.MyForm1.resources
^C:\Users\killjoyme\source\repos\WindowsF\WindowsF.vcxproj
C:\Users\killjoyme\source\repos\WindowsF\Debug\WindowsF.MyForm.resources
C:\Users\killjoyme\source\repos\WindowsF\Debug\WindowsF.MyForm1.resources
^C:\Users\killjoyme\source\repos\WindowsF\WindowsF.vcxproj
C:\Users\killjoyme\source\repos\WindowsF\Debug\WindowsF.MyForm.resources
C:\Users\killjoyme\source\repos\WindowsF\Debug\WindowsF.MyForm1.resources
^C:\Users\killjoyme\source\repos\WindowsF\WindowsF.vcxproj
C:\Users\killjoyme\source\repos\WindowsF\Debug\WindowsF.MyForm.resources
C:\Users\killjoyme\source\repos\WindowsF\Debug\WindowsF.MyForm1.resources
C:\Users\killjoyme\source\repos\WindowsF\Debug\WindowsF.MyForm2.resources
^C:\Users\killjoyme\source\repos\WindowsF\WindowsF.vcxproj
C:\Users\killjoyme\source\repos\WindowsF\Debug\WindowsF.MyForm.resources
C:\Users\killjoyme\source\repos\WindowsF\Debug\WindowsF.MyForm1.resources
C:\Users\killjoyme\source\repos\WindowsF\Debug\WindowsF.MyForm2.resources
^C:\Users\killjoyme\source\repos\WindowsF\WindowsF.vcxproj
C:\Users\killjoyme\source\repos\WindowsF\Debug\WindowsF.MyForm.resources
C:\Users\killjoyme\source\repos\WindowsF\Debug\WindowsF.MyForm1.resources
C:\Users\killjoyme\source\repos\WindowsF\Debug\WindowsF.MyForm2.resources
^C:\Users\killjoyme\source\repos\WindowsF\WindowsF.vcxproj
C:\Users\killjoyme\source\repos\WindowsF\Debug\WindowsF.MyForm.resources
C:\Users\killjoyme\source\repos\WindowsF\Debug\WindowsF.MyForm1.resources
C:\Users\killjoyme\source\repos\WindowsF\Debug\WindowsF.MyForm2.resources
^C:\Users\killjoyme\source\repos\WindowsF\WindowsF.vcxproj
C:\Users\killjoyme\source\repos\WindowsF\Debug\WindowsF.MyForm.resources
C:\Users\killjoyme\source\repos\WindowsF\Debug\WindowsF.MyForm1.resources
C:\Users\killjoyme\source\repos\WindowsF\Debug\WindowsF.MyForm2.resources
^C:\Users\killjoyme\source\repos\WindowsF\WindowsF.vcxproj
C:\Users\killjoyme\source\repos\WindowsF\Debug\WindowsF.MyForm.resources
C:\Users\killjoyme\source\repos\WindowsF\Debug\WindowsF.MyForm1.resources
C:\Users\killjoyme\source\repos\WindowsF\Debug\WindowsF.MyForm2.resources
^C:\Users\killjoyme\source\repos\WindowsF\WindowsF.vcxproj
C:\Users\killjoyme\source\repos\WindowsF\Debug\WindowsF.MyForm.resources
C:\Users\killjoyme\source\repos\WindowsF\Debug\WindowsF.MyForm1.resources
C:\Users\killjoyme\source\repos\WindowsF\Debug\WindowsF.MyForm2.resources
^C:\Users\killjoyme\source\repos\WindowsF\WindowsF.vcxproj
C:\Users\killjoyme\source\repos\WindowsF\Debug\WindowsF.MyForm.resources
C:\Users\killjoyme\source\repos\WindowsF\Debug\WindowsF.MyForm1.resources
C:\Users\killjoyme\source\repos\WindowsF\Debug\WindowsF.MyForm2.resources
^C:\Users\killjoyme\source\repos\WindowsF\WindowsF.vcxproj
C:\Users\killjoyme\source\repos\WindowsF\Debug\WindowsF.MyForm.resources
C:\Users\killjoyme\source\repos\WindowsF\Debug\WindowsF.MyForm1.resources
C:\Users\killjoyme\source\repos\WindowsF\Debug\WindowsF.MyForm2.resources
^C:\Users\killjoyme\source\repos\WindowsF\WindowsF.vcxproj
C:\Users\killjoyme\source\repos\WindowsF\Debug\WindowsF.MyForm.resources
C:\Users\killjoyme\source\repos\WindowsF\Debug\WindowsF.MyForm1.resources
C:\Users\killjoyme\source\repos\WindowsF\Debug\WindowsF.MyForm2.resources
^C:\Users\killjoyme\source\repos\WindowsF\WindowsF.vcxproj
C:\Users\killjoyme\source\repos\WindowsF\Debug\WindowsF.MyForm.resources
C:\Users\killjoyme\source\repos\WindowsF\Debug\WindowsF.MyForm1.resources
C:\Users\killjoyme\source\repos\WindowsF\Debug\WindowsF.MyForm2.resources
^C:\Users\killjoyme\source\repos\WindowsF\WindowsF.vcxproj
C:\Users\killjoyme\source\repos\WindowsF\Debug\WindowsF.MyForm.resources
C:\Users\killjoyme\source\repos\WindowsF\Debug\WindowsF.MyForm1.resources
C:\Users\killjoyme\source\repos\WindowsF\Debug\WindowsF.MyForm2.resources
^C:\Users\killjoyme\source\repos\WindowsF\WindowsF.vcxproj
C:\Users\killjoyme\source\repos\WindowsF\Debug\WindowsF.MyForm.resources
C:\Users\killjoyme\source\repos\WindowsF\Debug\WindowsF.MyForm1.resources
C:\Users\killjoyme\source\repos\WindowsF\Debug\WindowsF.MyForm2.resources
^C:\Users\killjoyme\source\repos\WindowsF\WindowsF.vcxproj
C:\Users\killjoyme\source\repos\WindowsF\Debug\WindowsF.MyForm.resources
C:\Users\killjoyme\source\repos\WindowsF\Debug\WindowsF.MyForm1.resources
C:\Users\killjoyme\source\repos\WindowsF\Debug\WindowsF.MyForm2.resources
^C:\Users\killjoyme\source\repos\WindowsF\WindowsF.vcxproj
C:\Users\killjoyme\source\repos\WindowsF\Debug\WindowsF.MyForm.resources
C:\Users\killjoyme\source\repos\WindowsF\Debug\WindowsF.MyForm1.resources
C:\Users\killjoyme\source\repos\WindowsF\Debug\WindowsF.MyForm2.resources
^C:\Users\killjoyme\source\repos\WindowsF\WindowsF.vcxproj
C:\Users\killjoyme\source\repos\WindowsF\Debug\WindowsF.MyForm.resources
C:\Users\killjoyme\source\repos\WindowsF\Debug\WindowsF.MyForm1.resources
C:\Users\killjoyme\source\repos\WindowsF\Debug\WindowsF.MyForm2.resources
^C:\Users\killjoyme\source\repos\WindowsF\WindowsF.vcxproj
C:\Users\killjoyme\source\repos\WindowsF\Debug\WindowsF.MyForm.resources
C:\Users\killjoyme\source\repos\WindowsF\Debug\WindowsF.MyForm1.resources
C:\Users\killjoyme\source\repos\WindowsF\Debug\WindowsF.MyForm2.resources
^C:\Users\killjoyme\source\repos\WindowsF\WindowsF.vcxproj
C:\Users\killjoyme\source\repos\WindowsF\Debug\WindowsF.MyForm.resources
C:\Users\killjoyme\source\repos\WindowsF\Debug\WindowsF.MyForm1.resources
C:\Users\killjoyme\source\repos\WindowsF\Debug\WindowsF.MyForm2.resources
^C:\Users\killjoyme\source\repos\WindowsF\WindowsF.vcxproj
C:\Users\killjoyme\source\repos\WindowsF\Debug\WindowsF.MyForm.resources
C:\Users\killjoyme\source\repos\WindowsF\Debug\WindowsF.MyForm1.resources
C:\Users\killjoyme\source\repos\WindowsF\Debug\WindowsF.MyForm2.resources
^C:\Users\killjoyme\source\repos\WindowsF\WindowsF.vcxproj
C:\Users\killjoyme\source\repos\WindowsF\Debug\WindowsF.MyForm.resources
C:\Users\killjoyme\source\repos\WindowsF\Debug\WindowsF.MyForm1.resources
C:\Users\killjoyme\source\repos\WindowsF\Debug\WindowsF.MyForm2.resources
^C:\Users\killjoyme\source\repos\WindowsF\WindowsF.vcxproj
C:\Users\killjoyme\source\repos\WindowsF\Debug\WindowsF.MyForm.resources
C:\Users\killjoyme\source\repos\WindowsF\Debug\WindowsF.MyForm1.resources
C:\Users\killjoyme\source\repos\WindowsF\Debug\WindowsF.MyForm2.resources
^C:\Users\killjoyme\source\repos\WindowsF\WindowsF.vcxproj
C:\Users\killjoyme\source\repos\WindowsF\Debug\WindowsF.MyForm.resources
C:\Users\killjoyme\source\repos\WindowsF\Debug\WindowsF.MyForm1.resources
C:\Users\killjoyme\source\repos\WindowsF\Debug\WindowsF.MyForm2.resources
^C:\Users\killjoyme\source\repos\WindowsF\WindowsF.vcxproj
C:\Users\killjoyme\source\repos\WindowsF\Debug\WindowsF.MyForm.resources
C:\Users\killjoyme\source\repos\WindowsF\Debug\WindowsF.MyForm1.resources
C:\Users\killjoyme\source\repos\WindowsF\Debug\WindowsF.MyForm2.resources
^C:\Users\killjoyme\source\repos\WindowsF\WindowsF.vcxproj
C:\Users\killjoyme\source\repos\WindowsF\Debug\WindowsF.MyForm.resources
C:\Users\killjoyme\source\repos\WindowsF\Debug\WindowsF.MyForm1.resources
C:\Users\killjoyme\source\repos\WindowsF\Debug\WindowsF.MyForm2.resources
^C:\Users\killjoyme\source\repos\WindowsF\WindowsF.vcxproj
C:\Users\killjoyme\source\repos\WindowsF\Debug\WindowsF.MyForm.resources
C:\Users\killjoyme\source\repos\WindowsF\Debug\WindowsF.MyForm1.resources
C:\Users\killjoyme\source\repos\WindowsF\Debug\WindowsF.MyForm2.resources
^C:\Users\killjoyme\source\repos\WindowsF\WindowsF.vcxproj
C:\Users\killjoyme\source\repos\WindowsF\Debug\WindowsF.MyForm.resources
C:\Users\killjoyme\source\repos\WindowsF\Debug\WindowsF.MyForm1.resources
C:\Users\killjoyme\source\repos\WindowsF\Debug\WindowsF.MyForm2.resources
^C:\Users\killjoyme\source\repos\WindowsF\WindowsF.vcxproj
C:\Users\killjoyme\source\repos\WindowsF\Debug\WindowsF.MyForm.resources
C:\Users\killjoyme\source\repos\WindowsF\Debug\WindowsF.MyForm1.resources
C:\Users\killjoyme\source\repos\WindowsF\Debug\WindowsF.MyForm2.resources
^C:\Users\killjoyme\source\repos\WindowsF\WindowsF.vcxproj
C:\Users\killjoyme\source\repos\WindowsF\Debug\WindowsF.MyForm.resources
C:\Users\killjoyme\source\repos\WindowsF\Debug\WindowsF.MyForm1.resources
C:\Users\killjoyme\source\repos\WindowsF\Debug\WindowsF.MyForm2.resources
^C:\Users\killjoyme\source\repos\WindowsF\WindowsF.vcxproj
C:\Users\killjoyme\source\repos\WindowsF\Debug\WindowsF.MyForm.resources
C:\Users\killjoyme\source\repos\WindowsF\Debug\WindowsF.MyForm1.resources
C:\Users\killjoyme\source\repos\WindowsF\Debug\WindowsF.MyForm2.resources
^C:\Users\killjoyme\source\repos\WindowsF\WindowsF.vcxproj
C:\Users\killjoyme\source\repos\WindowsF\Debug\WindowsF.MyForm.resources
C:\Users\killjoyme\source\repos\WindowsF\Debug\WindowsF.MyForm1.resources
C:\Users\killjoyme\source\repos\WindowsF\Debug\WindowsF.MyForm2.resources
^C:\Users\killjoyme\source\repos\WindowsF\WindowsF.vcxproj
C:\Users\killjoyme\source\repos\WindowsF\Debug\WindowsF.MyForm.resources
C:\Users\killjoyme\source\repos\WindowsF\Debug\WindowsF.MyForm1.resources
C:\Users\killjoyme\source\repos\WindowsF\Debug\WindowsF.MyForm2.resources
^C:\Users\killjoyme\source\repos\WindowsF\WindowsF.vcxproj
C:\Users\killjoyme\source\repos\WindowsF\Debug\WindowsF.MyForm.resources
C:\Users\killjoyme\source\repos\WindowsF\Debug\WindowsF.MyForm1.resources
C:\Users\killjoyme\source\repos\WindowsF\Debug\WindowsF.MyForm2.resources
^C:\Users\killjoyme\source\repos\WindowsF\WindowsF.vcxproj
C:\Users\killjoyme\source\repos\WindowsF\Debug\WindowsF.MyForm.resources
C:\Users\killjoyme\source\repos\WindowsF\Debug\WindowsF.MyForm1.resources
C:\Users\killjoyme\source\repos\WindowsF\Debug\WindowsF.MyForm2.resources
^C:\Users\killjoyme\source\repos\WindowsF\WindowsF.vcxproj
C:\Users\killjoyme\source\repos\WindowsF\Debug\WindowsF.MyForm.resources
C:\Users\killjoyme\source\repos\WindowsF\Debug\WindowsF.MyForm1.resources
C:\Users\killjoyme\source\repos\WindowsF\Debug\WindowsF.MyForm2.resources
^C:\Users\killjoyme\source\repos\WindowsF\WindowsF.vcxproj
C:\Users\killjoyme\source\repos\WindowsF\Debug\WindowsF.MyForm.resources
C:\Users\killjoyme\source\repos\WindowsF\Debug\WindowsF.MyForm1.resources
C:\Users\killjoyme\source\repos\WindowsF\Debug\WindowsF.MyForm2.resources
^C:\Users\killjoyme\source\repos\WindowsF\WindowsF.vcxproj
C:\Users\killjoyme\source\repos\WindowsF\Debug\WindowsF.MyForm.resources
C:\Users\killjoyme\source\repos\WindowsF\Debug\WindowsF.MyForm1.resources
C:\Users\killjoyme\source\repos\WindowsF\Debug\WindowsF.MyForm2.resources
^C:\Users\killjoyme\source\repos\WindowsF\WindowsF.vcxproj
C:\Users\killjoyme\source\repos\WindowsF\Debug\WindowsF.MyForm.resources
C:\Users\killjoyme\source\repos\WindowsF\Debug\WindowsF.MyForm1.resources
C:\Users\killjoyme\source\repos\WindowsF\Debug\WindowsF.MyForm2.resources
^C:\Users\killjoyme\source\repos\WindowsF\WindowsF.vcxproj
C:\Users\killjoyme\source\repos\WindowsF\Debug\WindowsF.MyForm.resources
C:\Users\killjoyme\source\repos\WindowsF\Debug\WindowsF.MyForm1.resources
C:\Users\killjoyme\source\repos\WindowsF\Debug\WindowsF.MyForm2.resources
^C:\Users\killjoyme\source\repos\WindowsF\WindowsF.vcxproj
C:\Users\killjoyme\source\repos\WindowsF\Debug\WindowsF.MyForm.resources
C:\Users\killjoyme\source\repos\WindowsF\Debug\WindowsF.MyForm1.resources
C:\Users\killjoyme\source\repos\WindowsF\Debug\WindowsF.MyForm2.resources
^C:\Users\killjoyme\source\repos\WindowsF\WindowsF.vcxproj
C:\Users\killjoyme\source\repos\WindowsF\Debug\WindowsF.MyForm.resources
C:\Users\killjoyme\source\repos\WindowsF\Debug\WindowsF.MyForm1.resources
C:\Users\killjoyme\source\repos\WindowsF\Debug\WindowsF.MyForm2.resources
^C:\Users\killjoyme\source\repos\WindowsF\WindowsF.vcxproj
C:\Users\killjoyme\source\repos\WindowsF\Debug\WindowsF.MyForm.resources
C:\Users\killjoyme\source\repos\WindowsF\Debug\WindowsF.MyForm1.resources
C:\Users\killjoyme\source\repos\WindowsF\Debug\WindowsF.MyForm2.resources
^C:\Users\killjoyme\source\repos\WindowsF\WindowsF.vcxproj
C:\Users\killjoyme\source\repos\WindowsF\Debug\WindowsF.MyForm.resources
C:\Users\killjoyme\source\repos\WindowsF\Debug\WindowsF.MyForm1.resources
C:\Users\killjoyme\source\repos\WindowsF\Debug\WindowsF.MyForm2.resources
^C:\Users\killjoyme\source\repos\WindowsF\WindowsF.vcxproj
C:\Users\killjoyme\source\repos\WindowsF\Debug\WindowsF.MyForm.resources
C:\Users\killjoyme\source\repos\WindowsF\Debug\WindowsF.MyForm1.resources
C:\Users\killjoyme\source\repos\WindowsF\Debug\WindowsF.MyForm2.resources
^C:\Users\killjoyme\source\repos\WindowsF\WindowsF.vcxproj
C:\Users\killjoyme\source\repos\WindowsF\Debug\WindowsF.MyForm.resources
C:\Users\killjoyme\source\repos\WindowsF\Debug\WindowsF.MyForm1.resources
C:\Users\killjoyme\source\repos\WindowsF\Debug\WindowsF.MyForm2.resources
^C:\Users\killjoyme\source\repos\WindowsF\WindowsF.vcxproj
C:\Users\killjoyme\source\repos\WindowsF\Debug\WindowsF.MyForm.resources
C:\Users\killjoyme\source\repos\WindowsF\Debug\WindowsF.MyForm1.resources
C:\Users\killjoyme\source\repos\WindowsF\Debug\WindowsF.MyForm2.resources
^C:\Users\killjoyme\source\repos\WindowsF\WindowsF.vcxproj
C:\Users\killjoyme\source\repos\WindowsF\Debug\WindowsF.MyForm.resources
C:\Users\killjoyme\source\repos\WindowsF\Debug\WindowsF.MyForm1.resources
C:\Users\killjoyme\source\repos\WindowsF\Debug\WindowsF.MyForm2.resources
^C:\Users\killjoyme\source\repos\WindowsF\WindowsF.vcxproj
C:\Users\killjoyme\source\repos\WindowsF\Debug\WindowsF.MyForm.resources
C:\Users\killjoyme\source\repos\WindowsF\Debug\WindowsF.MyForm1.resources
C:\Users\killjoyme\source\repos\WindowsF\Debug\WindowsF.MyForm2.resources
^C:\Users\killjoyme\source\repos\WindowsF\WindowsF.vcxproj
C:\Users\killjoyme\source\repos\WindowsF\Debug\WindowsF.MyForm.resources
C:\Users\killjoyme\source\repos\WindowsF\Debug\WindowsF.MyForm1.resources
C:\Users\killjoyme\source\repos\WindowsF\Debug\WindowsF.MyForm2.resources
^C:\Users\killjoyme\source\repos\WindowsF\WindowsF.vcxproj
C:\Users\killjoyme\source\repos\WindowsF\Debug\WindowsF.MyForm.resources
C:\Users\killjoyme\source\repos\WindowsF\Debug\WindowsF.MyForm1.resources
C:\Users\killjoyme\source\repos\WindowsF\Debug\WindowsF.MyForm2.resources
^C:\Users\killjoyme\source\repos\WindowsF\WindowsF.vcxproj
C:\Users\killjoyme\source\repos\WindowsF\Debug\WindowsF.MyForm.resources
C:\Users\killjoyme\source\repos\WindowsF\Debug\WindowsF.MyForm1.resources
C:\Users\killjoyme\source\repos\WindowsF\Debug\WindowsF.MyForm2.resources
^C:\Users\killjoyme\source\repos\WindowsF\WindowsF.vcxproj
C:\Users\killjoyme\source\repos\WindowsF\Debug\WindowsF.MyForm.resources
C:\Users\killjoyme\source\repos\WindowsF\Debug\WindowsF.MyForm1.resources
C:\Users\killjoyme\source\repos\WindowsF\Debug\WindowsF.MyForm2.resources
^C:\Users\killjoyme\source\repos\WindowsF\WindowsF.vcxproj
C:\Users\killjoyme\source\repos\WindowsF\Debug\WindowsF.MyForm.resources
C:\Users\killjoyme\source\repos\WindowsF\Debug\WindowsF.MyForm1.resources
C:\Users\killjoyme\source\repos\WindowsF\Debug\WindowsF.MyForm2.resources
^C:\Users\killjoyme\source\repos\WindowsF\WindowsF.vcxproj
C:\Users\killjoyme\source\repos\WindowsF\Debug\WindowsF.MyForm.resources
C:\Users\killjoyme\source\repos\WindowsF\Debug\WindowsF.MyForm1.resources
C:\Users\killjoyme\source\repos\WindowsF\Debug\WindowsF.MyForm2.resources
^C:\Users\killjoyme\source\repos\WindowsF\WindowsF.vcxproj
C:\Users\killjoyme\source\repos\WindowsF\Debug\WindowsF.MyForm.resources
C:\Users\killjoyme\source\repos\WindowsF\Debug\WindowsF.MyForm1.resources
C:\Users\killjoyme\source\repos\WindowsF\Debug\WindowsF.MyForm2.resources
^C:\Users\killjoyme\source\repos\WindowsF\WindowsF.vcxproj
C:\Users\killjoyme\source\repos\WindowsF\Debug\WindowsF.MyForm.resources
C:\Users\killjoyme\source\repos\WindowsF\Debug\WindowsF.MyForm1.resources
C:\Users\killjoyme\source\repos\WindowsF\Debug\WindowsF.MyForm2.resources
^C:\Users\killjoyme\source\repos\WindowsF\WindowsF.vcxproj
C:\Users\killjoyme\source\repos\WindowsF\Debug\WindowsF.MyForm.resources
C:\Users\killjoyme\source\repos\WindowsF\Debug\WindowsF.MyForm1.resources
C:\Users\killjoyme\source\repos\WindowsF\Debug\WindowsF.MyForm2.resources
^C:\Users\killjoyme\source\repos\WindowsF\WindowsF.vcxproj
C:\Users\killjoyme\source\repos\WindowsF\Debug\WindowsF.MyForm.resources
C:\Users\killjoyme\source\repos\WindowsF\Debug\WindowsF.MyForm1.resources
C:\Users\killjoyme\source\repos\WindowsF\Debug\WindowsF.MyForm2.resources
^C:\Users\killjoyme\source\repos\WindowsF\WindowsF.vcxproj
C:\Users\killjoyme\source\repos\WindowsF\Debug\WindowsF.MyForm.resources
C:\Users\killjoyme\source\repos\WindowsF\Debug\WindowsF.MyForm1.resources
C:\Users\killjoyme\source\repos\WindowsF\Debug\WindowsF.MyForm2.resources
^C:\Users\killjoyme\source\repos\WindowsF\WindowsF.vcxproj
C:\Users\killjoyme\source\repos\WindowsF\Debug\WindowsF.MyForm.resources
C:\Users\killjoyme\source\repos\WindowsF\Debug\WindowsF.MyForm1.resources
C:\Users\killjoyme\source\repos\WindowsF\Debug\WindowsF.MyForm2.resources
^C:\Users\killjoyme\source\repos\WindowsF\WindowsF.vcxproj
C:\Users\killjoyme\source\repos\WindowsF\Debug\WindowsF.MyForm.resources
C:\Users\killjoyme\source\repos\WindowsF\Debug\WindowsF.MyForm1.resources
C:\Users\killjoyme\source\repos\WindowsF\Debug\WindowsF.MyForm2.resources
^C:\Users\killjoyme\source\repos\WindowsF\WindowsF.vcxproj
C:\Users\killjoyme\source\repos\WindowsF\Debug\WindowsF.MyForm.resources
C:\Users\killjoyme\source\repos\WindowsF\Debug\WindowsF.MyForm1.resources
C:\Users\killjoyme\source\repos\WindowsF\Debug\WindowsF.MyForm2.resources
^C:\Users\killjoyme\source\repos\WindowsF\WindowsF.vcxproj
C:\Users\killjoyme\source\repos\WindowsF\Debug\WindowsF.MyForm.resources
C:\Users\killjoyme\source\repos\WindowsF\Debug\WindowsF.MyForm1.resources
C:\Users\killjoyme\source\repos\WindowsF\Debug\WindowsF.MyForm2.resources
^C:\Users\killjoyme\source\repos\WindowsF\WindowsF.vcxproj
C:\Users\killjoyme\source\repos\WindowsF\Debug\WindowsF.MyForm.resources
C:\Users\killjoyme\source\repos\WindowsF\Debug\WindowsF.MyForm1.resources
C:\Users\killjoyme\source\repos\WindowsF\Debug\WindowsF.MyForm2.resources
^C:\Users\killjoyme\source\repos\WindowsF\WindowsF.vcxproj
C:\Users\killjoyme\source\repos\WindowsF\Debug\WindowsF.MyForm.resources
C:\Users\killjoyme\source\repos\WindowsF\Debug\WindowsF.MyForm1.resources
C:\Users\killjoyme\source\repos\WindowsF\Debug\WindowsF.MyForm2.resources
^C:\Users\killjoyme\source\repos\WindowsF\WindowsF.vcxproj
C:\Users\killjoyme\source\repos\WindowsF\Debug\WindowsF.MyForm.resources
C:\Users\killjoyme\source\repos\WindowsF\Debug\WindowsF.MyForm1.resources
C:\Users\killjoyme\source\repos\WindowsF\Debug\WindowsF.MyForm2.resources
^C:\Users\killjoyme\source\repos\WindowsF\WindowsF.vcxproj
C:\Users\killjoyme\source\repos\WindowsF\Debug\WindowsF.MyForm.resources
C:\Users\killjoyme\source\repos\WindowsF\Debug\WindowsF.MyForm1.resources
C:\Users\killjoyme\source\repos\WindowsF\Debug\WindowsF.MyForm2.resources
^C:\Users\killjoyme\source\repos\WindowsF\WindowsF.vcxproj
C:\Users\killjoyme\source\repos\WindowsF\Debug\WindowsF.MyForm.resources
C:\Users\killjoyme\source\repos\WindowsF\Debug\WindowsF.MyForm1.resources
C:\Users\killjoyme\source\repos\WindowsF\Debug\WindowsF.MyForm2.resources
^C:\Users\killjoyme\source\repos\WindowsF\WindowsF.vcxproj
C:\Users\killjoyme\source\repos\WindowsF\Debug\WindowsF.MyForm.resources
C:\Users\killjoyme\source\repos\WindowsF\Debug\WindowsF.MyForm1.resources
C:\Users\killjoyme\source\repos\WindowsF\Debug\WindowsF.MyForm2.resources
^C:\Users\killjoyme\source\repos\WindowsF\WindowsF.vcxproj
C:\Users\killjoyme\source\repos\WindowsF\Debug\WindowsF.MyForm.resources
C:\Users\killjoyme\source\repos\WindowsF\Debug\WindowsF.MyForm1.resources
C:\Users\killjoyme\source\repos\WindowsF\Debug\WindowsF.MyForm2.resources
^C:\Users\killjoyme\source\repos\WindowsF\WindowsF.vcxproj
C:\Users\killjoyme\source\repos\WindowsF\Debug\WindowsF.MyForm.resources
C:\Users\killjoyme\source\repos\WindowsF\Debug\WindowsF.MyForm1.resources
C:\Users\killjoyme\source\repos\WindowsF\Debug\WindowsF.MyForm2.resources
^C:\Users\killjoyme\source\repos\WindowsF\WindowsF.vcxproj
C:\Users\killjoyme\source\repos\WindowsF\Debug\WindowsF.MyForm.resources
C:\Users\killjoyme\source\repos\WindowsF\Debug\WindowsF.MyForm1.resources
C:\Users\killjoyme\source\repos\WindowsF\Debug\WindowsF.MyForm2.resources
^C:\Users\killjoyme\source\repos\WindowsF\WindowsF.vcxproj
C:\Users\killjoyme\source\repos\WindowsF\Debug\WindowsF.MyForm.resources
C:\Users\killjoyme\source\repos\WindowsF\Debug\WindowsF.MyForm1.resources
C:\Users\killjoyme\source\repos\WindowsF\Debug\WindowsF.MyForm2.resources
^C:\Users\killjoyme\source\repos\WindowsF\WindowsF.vcxproj
C:\Users\killjoyme\source\repos\WindowsF\Debug\WindowsF.MyForm.resources
C:\Users\killjoyme\source\repos\WindowsF\Debug\WindowsF.MyForm1.resources
C:\Users\killjoyme\source\repos\WindowsF\Debug\WindowsF.MyForm2.resources
^C:\Users\killjoyme\source\repos\WindowsF\WindowsF.vcxproj
C:\Users\killjoyme\source\repos\WindowsF\Debug\WindowsF.MyForm.resources
C:\Users\killjoyme\source\repos\WindowsF\Debug\WindowsF.MyForm1.resources
C:\Users\killjoyme\source\repos\WindowsF\Debug\WindowsF.MyForm2.resources
^C:\Users\killjoyme\source\repos\WindowsF\WindowsF.vcxproj
C:\Users\killjoyme\source\repos\WindowsF\Debug\WindowsF.MyForm.resources
C:\Users\killjoyme\source\repos\WindowsF\Debug\WindowsF.MyForm1.resources
C:\Users\killjoyme\source\repos\WindowsF\Debug\WindowsF.MyForm2.resources
^C:\Users\killjoyme\source\repos\WindowsF\WindowsF.vcxproj
C:\Users\killjoyme\source\repos\WindowsF\Debug\WindowsF.MyForm.resources
C:\Users\killjoyme\source\repos\WindowsF\Debug\WindowsF.MyForm1.resources
C:\Users\killjoyme\source\repos\WindowsF\Debug\WindowsF.MyForm2.resources
^C:\Users\killjoyme\source\repos\WindowsF\WindowsF.vcxproj
C:\Users\killjoyme\source\repos\WindowsF\Debug\WindowsF.MyForm.resources
C:\Users\killjoyme\source\repos\WindowsF\Debug\WindowsF.MyForm1.resources
C:\Users\killjoyme\source\repos\WindowsF\Debug\WindowsF.MyForm2.resources
^C:\Users\killjoyme\source\repos\WindowsF\WindowsF.vcxproj
C:\Users\killjoyme\source\repos\WindowsF\Debug\WindowsF.MyForm.resources
C:\Users\killjoyme\source\repos\WindowsF\Debug\WindowsF.MyForm1.resources
C:\Users\killjoyme\source\repos\WindowsF\Debug\WindowsF.MyForm2.resources
^C:\Users\killjoyme\source\repos\WindowsF\WindowsF.vcxproj
C:\Users\killjoyme\source\repos\WindowsF\Debug\WindowsF.MyForm.resources
C:\Users\killjoyme\source\repos\WindowsF\Debug\WindowsF.MyForm1.resources
C:\Users\killjoyme\source\repos\WindowsF\Debug\WindowsF.MyForm2.resources
^C:\Users\killjoyme\source\repos\WindowsF\WindowsF.vcxproj
C:\Users\killjoyme\source\repos\WindowsF\Debug\WindowsF.MyForm.resources
C:\Users\killjoyme\source\repos\WindowsF\Debug\WindowsF.MyForm1.resources
C:\Users\killjoyme\source\repos\WindowsF\Debug\WindowsF.MyForm2.resources
^C:\Users\killjoyme\source\repos\WindowsF\WindowsF.vcxproj
C:\Users\killjoyme\source\repos\WindowsF\Debug\WindowsF.MyForm.resources
C:\Users\killjoyme\source\repos\WindowsF\Debug\WindowsF.MyForm1.resources
C:\Users\killjoyme\source\repos\WindowsF\Debug\WindowsF.MyForm2.resources
^C:\Users\killjoyme\source\repos\WindowsF\WindowsF.vcxproj
C:\Users\killjoyme\source\repos\WindowsF\Debug\WindowsF.MyForm.resources
C:\Users\killjoyme\source\repos\WindowsF\Debug\WindowsF.MyForm1.resources
C:\Users\killjoyme\source\repos\WindowsF\Debug\WindowsF.MyForm2.resources
^C:\Users\killjoyme\source\repos\WindowsF\WindowsF.vcxproj
C:\Users\killjoyme\source\repos\WindowsF\Debug\WindowsF.MyForm.resources
C:\Users\killjoyme\source\repos\WindowsF\Debug\WindowsF.MyForm1.resources
C:\Users\killjoyme\source\repos\WindowsF\Debug\WindowsF.MyForm2.resources
^C:\Users\killjoyme\source\repos\WindowsF\WindowsF.vcxproj
C:\Users\killjoyme\source\repos\WindowsF\Debug\WindowsF.MyForm.resources
C:\Users\killjoyme\source\repos\WindowsF\Debug\WindowsF.MyForm1.resources
C:\Users\killjoyme\source\repos\WindowsF\Debug\WindowsF.MyForm2.resources
^C:\Users\killjoyme\source\repos\WindowsF\WindowsF.vcxproj
C:\Users\killjoyme\source\repos\WindowsF\Debug\WindowsF.MyForm.resources
C:\Users\killjoyme\source\repos\WindowsF\Debug\WindowsF.MyForm1.resources
C:\Users\killjoyme\source\repos\WindowsF\Debug\WindowsF.MyForm2.resources
^C:\Users\killjoyme\source\repos\WindowsF\WindowsF.vcxproj
C:\Users\killjoyme\source\repos\WindowsF\Debug\WindowsF.MyForm.resources
C:\Users\killjoyme\source\repos\WindowsF\Debug\WindowsF.MyForm1.resources
C:\Users\killjoyme\source\repos\WindowsF\Debug\WindowsF.MyForm2.resources
^C:\Users\killjoyme\source\repos\WindowsF\WindowsF.vcxproj
C:\Users\killjoyme\source\repos\WindowsF\Debug\WindowsF.MyForm.resources
C:\Users\killjoyme\source\repos\WindowsF\Debug\WindowsF.MyForm1.resources
C:\Users\killjoyme\source\repos\WindowsF\Debug\WindowsF.MyForm2.resources
^C:\Users\killjoyme\source\repos\WindowsF\WindowsF.vcxproj
C:\Users\killjoyme\source\repos\WindowsF\Debug\WindowsF.MyForm.resources
C:\Users\killjoyme\source\repos\WindowsF\Debug\WindowsF.MyForm1.resources
C:\Users\killjoyme\source\repos\WindowsF\Debug\WindowsF.MyForm2.resources
^C:\Users\killjoyme\source\repos\WindowsF\WindowsF.vcxproj
C:\Users\killjoyme\source\repos\WindowsF\Debug\WindowsF.MyForm.resources
C:\Users\killjoyme\source\repos\WindowsF\Debug\WindowsF.MyForm1.resources
C:\Users\killjoyme\source\repos\WindowsF\Debug\WindowsF.MyForm2.resources
^C:\Users\killjoyme\source\repos\WindowsF\WindowsF.vcxproj
C:\Users\killjoyme\source\repos\WindowsF\Debug\WindowsF.MyForm.resources
C:\Users\killjoyme\source\repos\WindowsF\Debug\WindowsF.MyForm1.resources
C:\Users\killjoyme\source\repos\WindowsF\Debug\WindowsF.MyForm2.resources
^C:\Users\killjoyme\source\repos\WindowsF\WindowsF.vcxproj
C:\Users\killjoyme\source\repos\WindowsF\Debug\WindowsF.MyForm.resources
C:\Users\killjoyme\source\repos\WindowsF\Debug\WindowsF.MyForm1.resources
C:\Users\killjoyme\source\repos\WindowsF\Debug\WindowsF.MyForm2.resources
^C:\Users\killjoyme\source\repos\WindowsF\WindowsF.vcxproj
C:\Users\killjoyme\source\repos\WindowsF\Debug\WindowsF.MyForm.resources
C:\Users\killjoyme\source\repos\WindowsF\Debug\WindowsF.MyForm1.resources
C:\Users\killjoyme\source\repos\WindowsF\Debug\WindowsF.MyForm2.resources
^C:\Users\killjoyme\source\repos\WindowsF\WindowsF.vcxproj
C:\Users\killjoyme\source\repos\WindowsF\Debug\WindowsF.MyForm.resources
C:\Users\killjoyme\source\repos\WindowsF\Debug\WindowsF.MyForm1.resources
C:\Users\killjoyme\source\repos\WindowsF\Debug\WindowsF.MyForm2.resources
^C:\Users\killjoyme\source\repos\WindowsF\WindowsF.vcxproj
C:\Users\killjoyme\source\repos\WindowsF\Debug\WindowsF.MyForm.resources
C:\Users\killjoyme\source\repos\WindowsF\Debug\WindowsF.MyForm1.resources
C:\Users\killjoyme\source\repos\WindowsF\Debug\WindowsF.MyForm2.resources
^C:\Users\killjoyme\source\repos\WindowsF\WindowsF.vcxproj
C:\Users\killjoyme\source\repos\WindowsF\Debug\WindowsF.MyForm.resources
C:\Users\killjoyme\source\repos\WindowsF\Debug\WindowsF.MyForm1.resources
C:\Users\killjoyme\source\repos\WindowsF\Debug\WindowsF.MyForm2.resources
^C:\Users\killjoyme\source\repos\WindowsF\WindowsF.vcxproj
C:\Users\killjoyme\source\repos\WindowsF\Debug\WindowsF.MyForm.resources
C:\Users\killjoyme\source\repos\WindowsF\Debug\WindowsF.MyForm1.resources
C:\Users\killjoyme\source\repos\WindowsF\Debug\WindowsF.MyForm2.resources
^C:\Users\killjoyme\source\repos\WindowsF\WindowsF.vcxproj
C:\Users\killjoyme\source\repos\WindowsF\Debug\WindowsF.MyForm.resources
C:\Users\killjoyme\source\repos\WindowsF\Debug\WindowsF.MyForm1.resources
C:\Users\killjoyme\source\repos\WindowsF\Debug\WindowsF.MyForm2.resources
^C:\Users\killjoyme\source\repos\WindowsF\WindowsF.vcxproj
C:\Users\killjoyme\source\repos\WindowsF\Debug\WindowsF.MyForm.resources
C:\Users\killjoyme\source\repos\WindowsF\Debug\WindowsF.MyForm1.resources
C:\Users\killjoyme\source\repos\WindowsF\Debug\WindowsF.MyForm2.resources
^C:\Users\killjoyme\source\repos\WindowsF\WindowsF.vcxproj
C:\Users\killjoyme\source\repos\WindowsF\Debug\WindowsF.MyForm.resources
C:\Users\killjoyme\source\repos\WindowsF\Debug\WindowsF.MyForm1.resources
C:\Users\killjoyme\source\repos\WindowsF\Debug\WindowsF.MyForm2.resources
^C:\Users\killjoyme\source\repos\WindowsF\WindowsF.vcxproj
C:\Users\killjoyme\source\repos\WindowsF\Debug\WindowsF.MyForm.resources
C:\Users\killjoyme\source\repos\WindowsF\Debug\WindowsF.MyForm1.resources
C:\Users\killjoyme\source\repos\WindowsF\Debug\WindowsF.MyForm2.resources
^C:\Users\killjoyme\source\repos\WindowsF\WindowsF.vcxproj
C:\Users\killjoyme\source\repos\WindowsF\Debug\WindowsF.MyForm.resources
C:\Users\killjoyme\source\repos\WindowsF\Debug\WindowsF.MyForm1.resources
C:\Users\killjoyme\source\repos\WindowsF\Debug\WindowsF.MyForm2.resources
^C:\Users\killjoyme\source\repos\WindowsF\WindowsF.vcxproj
C:\Users\killjoyme\source\repos\WindowsF\Debug\WindowsF.MyForm.resources
C:\Users\killjoyme\source\repos\WindowsF\Debug\WindowsF.MyForm1.resources
C:\Users\killjoyme\source\repos\WindowsF\Debug\WindowsF.MyForm2.resources
^C:\Users\killjoyme\source\repos\WindowsF\WindowsF.vcxproj
C:\Users\killjoyme\source\repos\WindowsF\Debug\WindowsF.MyForm.resources
C:\Users\killjoyme\source\repos\WindowsF\Debug\WindowsF.MyForm1.resources
C:\Users\killjoyme\source\repos\WindowsF\Debug\WindowsF.MyForm2.resources
^C:\Users\killjoyme\source\repos\WindowsF\WindowsF.vcxproj
C:\Users\killjoyme\source\repos\WindowsF\Debug\WindowsF.MyForm.resources
C:\Users\killjoyme\source\repos\WindowsF\Debug\WindowsF.MyForm1.resources
C:\Users\killjoyme\source\repos\WindowsF\Debug\WindowsF.MyForm2.resources
^C:\Users\killjoyme\source\repos\WindowsF\WindowsF.vcxproj
C:\Users\killjoyme\source\repos\WindowsF\Debug\WindowsF.MyForm.resources
C:\Users\killjoyme\source\repos\WindowsF\Debug\WindowsF.MyForm1.resources
C:\Users\killjoyme\source\repos\WindowsF\Debug\WindowsF.MyForm2.resources
^C:\Users\killjoyme\source\repos\WindowsF\WindowsF.vcxproj
C:\Users\killjoyme\source\repos\WindowsF\Debug\WindowsF.MyForm.resources
C:\Users\killjoyme\source\repos\WindowsF\Debug\WindowsF.MyForm1.resources
C:\Users\killjoyme\source\repos\WindowsF\Debug\WindowsF.MyForm2.resources
^C:\Users\killjoyme\source\repos\WindowsF\WindowsF.vcxproj
C:\Users\killjoyme\source\repos\WindowsF\Debug\WindowsF.MyForm.resources
C:\Users\killjoyme\source\repos\WindowsF\Debug\WindowsF.MyForm1.resources
C:\Users\killjoyme\source\repos\WindowsF\Debug\WindowsF.MyForm2.resources
^C:\Users\killjoyme\source\repos\WindowsF\WindowsF.vcxproj
C:\Users\killjoyme\source\repos\WindowsF\Debug\WindowsF.MyForm.resources
C:\Users\killjoyme\source\repos\WindowsF\Debug\WindowsF.MyForm1.resources
C:\Users\killjoyme\source\repos\WindowsF\Debug\WindowsF.MyForm2.resources
^C:\Users\killjoyme\source\repos\WindowsF\WindowsF.vcxproj
C:\Users\killjoyme\source\repos\WindowsF\Debug\WindowsF.MyForm.resources
C:\Users\killjoyme\source\repos\WindowsF\Debug\WindowsF.MyForm1.resources
C:\Users\killjoyme\source\repos\WindowsF\Debug\WindowsF.MyForm2.resources
^C:\Users\killjoyme\source\repos\WindowsF\WindowsF.vcxproj
C:\Users\killjoyme\source\repos\WindowsF\Debug\WindowsF.MyForm.resources
C:\Users\killjoyme\source\repos\WindowsF\Debug\WindowsF.MyForm1.resources
C:\Users\killjoyme\source\repos\WindowsF\Debug\WindowsF.MyForm2.resources
^C:\Users\killjoyme\source\repos\WindowsF\WindowsF.vcxproj
C:\Users\killjoyme\source\repos\WindowsF\Debug\WindowsF.MyForm.resources
C:\Users\killjoyme\source\repos\WindowsF\Debug\WindowsF.MyForm1.resources
C:\Users\killjoyme\source\repos\WindowsF\Debug\WindowsF.MyForm2.resources
^C:\Users\killjoyme\source\repos\WindowsF\WindowsF.vcxproj
C:\Users\killjoyme\source\repos\WindowsF\Debug\WindowsF.MyForm.resources
C:\Users\killjoyme\source\repos\WindowsF\Debug\WindowsF.MyForm1.resources
C:\Users\killjoyme\source\repos\WindowsF\Debug\WindowsF.MyForm2.resources
^C:\Users\killjoyme\source\repos\WindowsF\WindowsF.vcxproj
C:\Users\killjoyme\source\repos\WindowsF\Debug\WindowsF.MyForm.resources
C:\Users\killjoyme\source\repos\WindowsF\Debug\WindowsF.MyForm1.resources
C:\Users\killjoyme\source\repos\WindowsF\Debug\WindowsF.MyForm2.resources
^C:\Users\killjoyme\source\repos\WindowsF\WindowsF.vcxproj
C:\Users\killjoyme\source\repos\WindowsF\Debug\WindowsF.MyForm.resources
C:\Users\killjoyme\source\repos\WindowsF\Debug\WindowsF.MyForm1.resources
C:\Users\killjoyme\source\repos\WindowsF\Debug\WindowsF.MyForm2.resources
^C:\Users\killjoyme\source\repos\WindowsF\WindowsF.vcxproj
C:\Users\killjoyme\source\repos\WindowsF\Debug\WindowsF.MyForm.resources
C:\Users\killjoyme\source\repos\WindowsF\Debug\WindowsF.MyForm1.resources
C:\Users\killjoyme\source\repos\WindowsF\Debug\WindowsF.MyForm2.resources
^C:\Users\killjoyme\source\repos\WindowsF\WindowsF.vcxproj
C:\Users\killjoyme\source\repos\WindowsF\Debug\WindowsF.MyForm.resources
C:\Users\killjoyme\source\repos\WindowsF\Debug\WindowsF.MyForm1.resources
C:\Users\killjoyme\source\repos\WindowsF\Debug\WindowsF.MyForm2.resources
^C:\Users\killjoyme\source\repos\WindowsF\WindowsF.vcxproj
C:\Users\killjoyme\source\repos\WindowsF\Debug\WindowsF.MyForm.resources
C:\Users\killjoyme\source\repos\WindowsF\Debug\WindowsF.MyForm1.resources
C:\Users\killjoyme\source\repos\WindowsF\Debug\WindowsF.MyForm2.resources
^C:\Users\killjoyme\source\repos\WindowsF\WindowsF.vcxproj
C:\Users\killjoyme\source\repos\WindowsF\Debug\WindowsF.MyForm.resources
C:\Users\killjoyme\source\repos\WindowsF\Debug\WindowsF.MyForm1.resources
C:\Users\killjoyme\source\repos\WindowsF\Debug\WindowsF.MyForm2.resources
^C:\Users\killjoyme\source\repos\WindowsF\WindowsF.vcxproj
C:\Users\killjoyme\source\repos\WindowsF\Debug\WindowsF.MyForm.resources
C:\Users\killjoyme\source\repos\WindowsF\Debug\WindowsF.MyForm1.resources
C:\Users\killjoyme\source\repos\WindowsF\Debug\WindowsF.MyForm2.resources
^C:\Users\killjoyme\source\repos\WindowsF\WindowsF.vcxproj
C:\Users\killjoyme\source\repos\WindowsF\Debug\WindowsF.MyForm.resources
C:\Users\killjoyme\source\repos\WindowsF\Debug\WindowsF.MyForm1.resources
C:\Users\killjoyme\source\repos\WindowsF\Debug\WindowsF.MyForm2.resources
^C:\Users\killjoyme\source\repos\WindowsF\WindowsF.vcxproj
C:\Users\killjoyme\source\repos\WindowsF\Debug\WindowsF.MyForm.resources
C:\Users\killjoyme\source\repos\WindowsF\Debug\WindowsF.MyForm1.resources
C:\Users\killjoyme\source\repos\WindowsF\Debug\WindowsF.MyForm2.resources
^C:\Users\killjoyme\source\repos\WindowsF\WindowsF.vcxproj
C:\Users\killjoyme\source\repos\WindowsF\Debug\WindowsF.MyForm.resources
C:\Users\killjoyme\source\repos\WindowsF\Debug\WindowsF.MyForm1.resources
C:\Users\killjoyme\source\repos\WindowsF\Debug\WindowsF.MyForm2.resources
^C:\Users\killjoyme\source\repos\WindowsF\WindowsF.vcxproj
C:\Users\killjoyme\source\repos\WindowsF\Debug\WindowsF.MyForm.resources
C:\Users\killjoyme\source\repos\WindowsF\Debug\WindowsF.MyForm1.resources
C:\Users\killjoyme\source\repos\WindowsF\Debug\WindowsF.MyForm2.resources
^C:\Users\killjoyme\source\repos\WindowsF\WindowsF.vcxproj
C:\Users\killjoyme\source\repos\WindowsF\Debug\WindowsF.MyForm.resources
C:\Users\killjoyme\source\repos\WindowsF\Debug\WindowsF.MyForm1.resources
C:\Users\killjoyme\source\repos\WindowsF\Debug\WindowsF.MyForm2.resources
^C:\Users\killjoyme\source\repos\WindowsF\WindowsF.vcxproj
C:\Users\killjoyme\source\repos\WindowsF\Debug\WindowsF.MyForm.resources
C:\Users\killjoyme\source\repos\WindowsF\Debug\WindowsF.MyForm1.resources
C:\Users\killjoyme\source\repos\WindowsF\Debug\WindowsF.MyForm2.resources
^C:\Users\killjoyme\source\repos\WindowsF\WindowsF.vcxproj
C:\Users\killjoyme\source\repos\WindowsF\Debug\WindowsF.MyForm.resources
C:\Users\killjoyme\source\repos\WindowsF\Debug\WindowsF.MyForm1.resources
C:\Users\killjoyme\source\repos\WindowsF\Debug\WindowsF.MyForm2.resources
^C:\Users\killjoyme\source\repos\WindowsF\WindowsF.vcxproj
C:\Users\killjoyme\source\repos\WindowsF\Debug\WindowsF.MyForm.resources
C:\Users\killjoyme\source\repos\WindowsF\Debug\WindowsF.MyForm1.resources
C:\Users\killjoyme\source\repos\WindowsF\Debug\WindowsF.MyForm2.resources
^C:\Users\killjoyme\source\repos\WindowsF\WindowsF.vcxproj
C:\Users\killjoyme\source\repos\WindowsF\Debug\WindowsF.MyForm.resources
C:\Users\killjoyme\source\repos\WindowsF\Debug\WindowsF.MyForm1.resources
C:\Users\killjoyme\source\repos\WindowsF\Debug\WindowsF.MyForm2.resources
^C:\Users\killjoyme\source\repos\WindowsF\WindowsF.vcxproj
C:\Users\killjoyme\source\repos\WindowsF\Debug\WindowsF.MyForm.resources
C:\Users\killjoyme\source\repos\WindowsF\Debug\WindowsF.MyForm1.resources
C:\Users\killjoyme\source\repos\WindowsF\Debug\WindowsF.MyForm2.resources
^C:\Users\killjoyme\source\repos\WindowsF\WindowsF.vcxproj
C:\Users\killjoyme\source\repos\WindowsF\Debug\WindowsF.MyForm.resources
C:\Users\killjoyme\source\repos\WindowsF\Debug\WindowsF.MyForm1.resources
C:\Users\killjoyme\source\repos\WindowsF\Debug\WindowsF.MyForm2.resources
^C:\Users\killjoyme\source\repos\WindowsF\WindowsF.vcxproj
C:\Users\killjoyme\source\repos\WindowsF\Debug\WindowsF.MyForm.resources
C:\Users\killjoyme\source\repos\WindowsF\Debug\WindowsF.MyForm1.resources
C:\Users\killjoyme\source\repos\WindowsF\Debug\WindowsF.MyForm2.resources
^C:\Users\killjoyme\source\repos\WindowsF\WindowsF.vcxproj
C:\Users\killjoyme\source\repos\WindowsF\Debug\WindowsF.MyForm.resources
C:\Users\killjoyme\source\repos\WindowsF\Debug\WindowsF.MyForm1.resources
C:\Users\killjoyme\source\repos\WindowsF\Debug\WindowsF.MyForm2.resources
^C:\Users\killjoyme\source\repos\WindowsF\WindowsF.vcxproj
C:\Users\killjoyme\source\repos\WindowsF\Debug\WindowsF.MyForm.resources
C:\Users\killjoyme\source\repos\WindowsF\Debug\WindowsF.MyForm1.resources
C:\Users\killjoyme\source\repos\WindowsF\Debug\WindowsF.MyForm2.resources
^C:\Users\killjoyme\source\repos\WindowsF\WindowsF.vcxproj
C:\Users\killjoyme\source\repos\WindowsF\Debug\WindowsF.MyForm.resources
C:\Users\killjoyme\source\repos\WindowsF\Debug\WindowsF.MyForm1.resources
C:\Users\killjoyme\source\repos\WindowsF\Debug\WindowsF.MyForm2.resources
^C:\Users\killjoyme\source\repos\WindowsF\WindowsF.vcxproj
C:\Users\killjoyme\source\repos\WindowsF\Debug\WindowsF.MyForm.resources
C:\Users\killjoyme\source\repos\WindowsF\Debug\WindowsF.MyForm1.resources
C:\Users\killjoyme\source\repos\WindowsF\Debug\WindowsF.MyForm2.resources
^C:\Users\killjoyme\source\repos\WindowsF\WindowsF.vcxproj
C:\Users\killjoyme\source\repos\WindowsF\Debug\WindowsF.MyForm.resources
C:\Users\killjoyme\source\repos\WindowsF\Debug\WindowsF.MyForm1.resources
C:\Users\killjoyme\source\repos\WindowsF\Debug\WindowsF.MyForm2.resources
^C:\Users\killjoyme\source\repos\WindowsF\WindowsF.vcxproj
C:\Users\killjoyme\source\repos\WindowsF\Debug\WindowsF.MyForm.resources
C:\Users\killjoyme\source\repos\WindowsF\Debug\WindowsF.MyForm1.resources
C:\Users\killjoyme\source\repos\WindowsF\Debug\WindowsF.MyForm2.resources
^C:\Users\killjoyme\source\repos\WindowsF\WindowsF.vcxproj
C:\Users\killjoyme\source\repos\WindowsF\Debug\WindowsF.MyForm.resources
C:\Users\killjoyme\source\repos\WindowsF\Debug\WindowsF.MyForm1.resources
C:\Users\killjoyme\source\repos\WindowsF\Debug\WindowsF.MyForm2.resources
^C:\Users\killjoyme\source\repos\WindowsF\WindowsF.vcxproj
C:\Users\killjoyme\source\repos\WindowsF\Debug\WindowsF.MyForm.resources
C:\Users\killjoyme\source\repos\WindowsF\Debug\WindowsF.MyForm1.resources
C:\Users\killjoyme\source\repos\WindowsF\Debug\WindowsF.MyForm2.resources
^C:\Users\killjoyme\source\repos\WindowsF\WindowsF.vcxproj
C:\Users\killjoyme\source\repos\WindowsF\Debug\WindowsF.MyForm.resources
C:\Users\killjoyme\source\repos\WindowsF\Debug\WindowsF.MyForm1.resources
C:\Users\killjoyme\source\repos\WindowsF\Debug\WindowsF.MyForm2.resources
^C:\Users\killjoyme\source\repos\WindowsF\WindowsF.vcxproj
C:\Users\killjoyme\source\repos\WindowsF\Debug\WindowsF.MyForm.resources
C:\Users\killjoyme\source\repos\WindowsF\Debug\WindowsF.MyForm1.resources
C:\Users\killjoyme\source\repos\WindowsF\Debug\WindowsF.MyForm2.resources
^C:\Users\killjoyme\source\repos\WindowsF\WindowsF.vcxproj
C:\Users\killjoyme\source\repos\WindowsF\Debug\WindowsF.MyForm.resources
C:\Users\killjoyme\source\repos\WindowsF\Debug\WindowsF.MyForm1.resources
C:\Users\killjoyme\source\repos\WindowsF\Debug\WindowsF.MyForm2.resources
^C:\Users\killjoyme\source\repos\WindowsF\WindowsF.vcxproj
C:\Users\killjoyme\source\repos\WindowsF\Debug\WindowsF.MyForm.resources
C:\Users\killjoyme\source\repos\WindowsF\Debug\WindowsF.MyForm1.resources
C:\Users\killjoyme\source\repos\WindowsF\Debug\WindowsF.MyForm2.resources
^C:\Users\killjoyme\source\repos\WindowsF\WindowsF.vcxproj
C:\Users\killjoyme\source\repos\WindowsF\Debug\WindowsF.MyForm.resources
C:\Users\killjoyme\source\repos\WindowsF\Debug\WindowsF.MyForm1.resources
C:\Users\killjoyme\source\repos\WindowsF\Debug\WindowsF.MyForm2.resources
^C:\Users\killjoyme\source\repos\WindowsF\WindowsF.vcxproj
C:\Users\killjoyme\source\repos\WindowsF\Debug\WindowsF.MyForm.resources
C:\Users\killjoyme\source\repos\WindowsF\Debug\WindowsF.MyForm1.resources
C:\Users\killjoyme\source\repos\WindowsF\Debug\WindowsF.MyForm2.resources
^C:\Users\killjoyme\source\repos\WindowsF\WindowsF.vcxproj
C:\Users\killjoyme\source\repos\WindowsF\Debug\WindowsF.MyForm.resources
C:\Users\killjoyme\source\repos\WindowsF\Debug\WindowsF.MyForm1.resources
C:\Users\killjoyme\source\repos\WindowsF\Debug\WindowsF.MyForm2.resources
^C:\Users\killjoyme\source\repos\WindowsF\WindowsF.vcxproj
C:\Users\killjoyme\source\repos\WindowsF\Debug\WindowsF.MyForm.resources
C:\Users\killjoyme\source\repos\WindowsF\Debug\WindowsF.MyForm1.resources
C:\Users\killjoyme\source\repos\WindowsF\Debug\WindowsF.MyForm2.resources
^C:\Users\killjoyme\source\repos\WindowsF\WindowsF.vcxproj
C:\Users\killjoyme\source\repos\WindowsF\Debug\WindowsF.MyForm.resources
C:\Users\killjoyme\source\repos\WindowsF\Debug\WindowsF.MyForm1.resources
C:\Users\killjoyme\source\repos\WindowsF\Debug\WindowsF.MyForm2.resources
^C:\Users\killjoyme\source\repos\WindowsF\WindowsF.vcxproj
C:\Users\killjoyme\source\repos\WindowsF\Debug\WindowsF.MyForm.resources
C:\Users\killjoyme\source\repos\WindowsF\Debug\WindowsF.MyForm1.resources
C:\Users\killjoyme\source\repos\WindowsF\Debug\WindowsF.MyForm2.resources
^C:\Users\killjoyme\source\repos\WindowsF\WindowsF.vcxproj
C:\Users\killjoyme\source\repos\WindowsF\Debug\WindowsF.MyForm.resources
C:\Users\killjoyme\source\repos\WindowsF\Debug\WindowsF.MyForm1.resources
C:\Users\killjoyme\source\repos\WindowsF\Debug\WindowsF.MyForm2.resources
^C:\Users\killjoyme\source\repos\WindowsF\WindowsF.vcxproj
C:\Users\killjoyme\source\repos\WindowsF\Debug\WindowsF.MyForm.resources
C:\Users\killjoyme\source\repos\WindowsF\Debug\WindowsF.MyForm1.resources
C:\Users\killjoyme\source\repos\WindowsF\Debug\WindowsF.MyForm2.resources
^C:\Users\killjoyme\source\repos\WindowsF\WindowsF.vcxproj
C:\Users\killjoyme\source\repos\WindowsF\Debug\WindowsF.MyForm.resources
C:\Users\killjoyme\source\repos\WindowsF\Debug\WindowsF.MyForm1.resources
C:\Users\killjoyme\source\repos\WindowsF\Debug\WindowsF.MyForm2.resources
^C:\Users\killjoyme\source\repos\WindowsF\WindowsF.vcxproj
C:\Users\killjoyme\source\repos\WindowsF\Debug\WindowsF.MyForm.resources
C:\Users\killjoyme\source\repos\WindowsF\Debug\WindowsF.MyForm1.resources
C:\Users\killjoyme\source\repos\WindowsF\Debug\WindowsF.MyForm2.resources
^C:\Users\killjoyme\source\repos\WindowsF\WindowsF.vcxproj
C:\Users\killjoyme\source\repos\WindowsF\Debug\WindowsF.MyForm.resources
C:\Users\killjoyme\source\repos\WindowsF\Debug\WindowsF.MyForm1.resources
C:\Users\killjoyme\source\repos\WindowsF\Debug\WindowsF.MyForm2.resources
C:\Users\killjoyme\source\repos\WindowsF\Debug\WindowsF.MyForm3.resources
^C:\Users\killjoyme\source\repos\WindowsF\WindowsF.vcxproj
C:\Users\killjoyme\source\repos\WindowsF\Debug\WindowsF.MyForm.resources
C:\Users\killjoyme\source\repos\WindowsF\Debug\WindowsF.MyForm1.resources
C:\Users\killjoyme\source\repos\WindowsF\Debug\WindowsF.MyForm2.resources
C:\Users\killjoyme\source\repos\WindowsF\Debug\WindowsF.MyForm3.resources
^C:\Users\killjoyme\source\repos\WindowsF\WindowsF.vcxproj
C:\Users\killjoyme\source\repos\WindowsF\Debug\WindowsF.MyForm.resources
C:\Users\killjoyme\source\repos\WindowsF\Debug\WindowsF.MyForm1.resources
C:\Users\killjoyme\source\repos\WindowsF\Debug\WindowsF.MyForm2.resources
C:\Users\killjoyme\source\repos\WindowsF\Debug\WindowsF.MyForm3.resources
^C:\Users\killjoyme\source\repos\WindowsF\WindowsF.vcxproj
C:\Users\killjoyme\source\repos\WindowsF\Debug\WindowsF.MyForm.resources
C:\Users\killjoyme\source\repos\WindowsF\Debug\WindowsF.MyForm1.resources
C:\Users\killjoyme\source\repos\WindowsF\Debug\WindowsF.MyForm2.resources
C:\Users\killjoyme\source\repos\WindowsF\Debug\WindowsF.MyForm3.resources
^C:\Users\killjoyme\source\repos\WindowsF\WindowsF.vcxproj
C:\Users\killjoyme\source\repos\WindowsF\Debug\WindowsF.MyForm.resources
C:\Users\killjoyme\source\repos\WindowsF\Debug\WindowsF.MyForm1.resources
C:\Users\killjoyme\source\repos\WindowsF\Debug\WindowsF.MyForm2.resources
C:\Users\killjoyme\source\repos\WindowsF\Debug\WindowsF.MyForm3.resources
^C:\Users\killjoyme\source\repos\WindowsF\WindowsF.vcxproj
C:\Users\killjoyme\source\repos\WindowsF\Debug\WindowsF.MyForm.resources
C:\Users\killjoyme\source\repos\WindowsF\Debug\WindowsF.MyForm1.resources
C:\Users\killjoyme\source\repos\WindowsF\Debug\WindowsF.MyForm2.resources
C:\Users\killjoyme\source\repos\WindowsF\Debug\WindowsF.MyForm3.resources
^C:\Users\killjoyme\source\repos\WindowsF\WindowsF.vcxproj
C:\Users\killjoyme\source\repos\WindowsF\Debug\WindowsF.MyForm.resources
C:\Users\killjoyme\source\repos\WindowsF\Debug\WindowsF.MyForm1.resources
C:\Users\killjoyme\source\repos\WindowsF\Debug\WindowsF.MyForm2.resources
C:\Users\killjoyme\source\repos\WindowsF\Debug\WindowsF.MyForm3.resources
^C:\Users\killjoyme\source\repos\WindowsF\WindowsF.vcxproj
C:\Users\killjoyme\source\repos\WindowsF\Debug\WindowsF.MyForm.resources
C:\Users\killjoyme\source\repos\WindowsF\Debug\WindowsF.MyForm1.resources
C:\Users\killjoyme\source\repos\WindowsF\Debug\WindowsF.MyForm2.resources
C:\Users\killjoyme\source\repos\WindowsF\Debug\WindowsF.MyForm3.resources
^C:\Users\killjoyme\source\repos\WindowsF\WindowsF.vcxproj
C:\Users\killjoyme\source\repos\WindowsF\Debug\WindowsF.MyForm.resources
C:\Users\killjoyme\source\repos\WindowsF\Debug\WindowsF.MyForm1.resources
C:\Users\killjoyme\source\repos\WindowsF\Debug\WindowsF.MyForm2.resources
C:\Users\killjoyme\source\repos\WindowsF\Debug\WindowsF.MyForm3.resources
^C:\Users\killjoyme\source\repos\WindowsF\WindowsF.vcxproj
C:\Users\killjoyme\source\repos\WindowsF\Debug\WindowsF.MyForm.resources
C:\Users\killjoyme\source\repos\WindowsF\Debug\WindowsF.MyForm1.resources
C:\Users\killjoyme\source\repos\WindowsF\Debug\WindowsF.MyForm2.resources
C:\Users\killjoyme\source\repos\WindowsF\Debug\WindowsF.MyForm3.resources
^C:\Users\killjoyme\source\repos\WindowsF\WindowsF.vcxproj
C:\Users\killjoyme\source\repos\WindowsF\Debug\WindowsF.MyForm.resources
C:\Users\killjoyme\source\repos\WindowsF\Debug\WindowsF.MyForm1.resources
C:\Users\killjoyme\source\repos\WindowsF\Debug\WindowsF.MyForm2.resources
C:\Users\killjoyme\source\repos\WindowsF\Debug\WindowsF.MyForm3.resources
^C:\Users\killjoyme\source\repos\WindowsF\WindowsF.vcxproj
C:\Users\killjoyme\source\repos\WindowsF\Debug\WindowsF.MyForm.resources
C:\Users\killjoyme\source\repos\WindowsF\Debug\WindowsF.MyForm1.resources
C:\Users\killjoyme\source\repos\WindowsF\Debug\WindowsF.MyForm2.resources
C:\Users\killjoyme\source\repos\WindowsF\Debug\WindowsF.MyForm3.resources
^C:\Users\killjoyme\source\repos\WindowsF\WindowsF.vcxproj
C:\Users\killjoyme\source\repos\WindowsF\Debug\WindowsF.MyForm.resources
C:\Users\killjoyme\source\repos\WindowsF\Debug\WindowsF.MyForm1.resources
C:\Users\killjoyme\source\repos\WindowsF\Debug\WindowsF.MyForm2.resources
C:\Users\killjoyme\source\repos\WindowsF\Debug\WindowsF.MyForm3.resources
^C:\Users\killjoyme\source\repos\WindowsF\WindowsF.vcxproj
C:\Users\killjoyme\source\repos\WindowsF\Debug\WindowsF.MyForm.resources
C:\Users\killjoyme\source\repos\WindowsF\Debug\WindowsF.MyForm1.resources
C:\Users\killjoyme\source\repos\WindowsF\Debug\WindowsF.MyForm2.resources
C:\Users\killjoyme\source\repos\WindowsF\Debug\WindowsF.MyForm3.resources
^C:\Users\killjoyme\source\repos\WindowsF\WindowsF.vcxproj
C:\Users\killjoyme\source\repos\WindowsF\Debug\WindowsF.MyForm.resources
C:\Users\killjoyme\source\repos\WindowsF\Debug\WindowsF.MyForm1.resources
C:\Users\killjoyme\source\repos\WindowsF\Debug\WindowsF.MyForm2.resources
C:\Users\killjoyme\source\repos\WindowsF\Debug\WindowsF.MyForm3.resources
^C:\Users\killjoyme\source\repos\WindowsF\WindowsF.vcxproj
C:\Users\killjoyme\source\repos\WindowsF\Debug\WindowsF.MyForm.resources
C:\Users\killjoyme\source\repos\WindowsF\Debug\WindowsF.MyForm1.resources
C:\Users\killjoyme\source\repos\WindowsF\Debug\WindowsF.MyForm2.resources
C:\Users\killjoyme\source\repos\WindowsF\Debug\WindowsF.MyForm3.resources
C:\Users\killjoyme\source\repos\WindowsF\Debug\WindowsF.MyForm4.resources
C:\Users\killjoyme\source\repos\WindowsF\Debug\WindowsF.MyForm5.resources
C:\Users\killjoyme\source\repos\WindowsF\Debug\WindowsF.MyForm6.resources
^C:\Users\killjoyme\source\repos\WindowsF\WindowsF.vcxproj
C:\Users\killjoyme\source\repos\WindowsF\Debug\WindowsF.MyForm.resources
C:\Users\killjoyme\source\repos\WindowsF\Debug\WindowsF.MyForm1.resources
C:\Users\killjoyme\source\repos\WindowsF\Debug\WindowsF.MyForm2.resources
C:\Users\killjoyme\source\repos\WindowsF\Debug\WindowsF.MyForm3.resources
C:\Users\killjoyme\source\repos\WindowsF\Debug\WindowsF.MyForm4.resources
C:\Users\killjoyme\source\repos\WindowsF\Debug\WindowsF.MyForm5.resources
C:\Users\killjoyme\source\repos\WindowsF\Debug\WindowsF.MyForm6.resources
^C:\Users\killjoyme\source\repos\WindowsF\WindowsF.vcxproj
C:\Users\killjoyme\source\repos\WindowsF\Debug\WindowsF.MyForm.resources
C:\Users\killjoyme\source\repos\WindowsF\Debug\WindowsF.MyForm1.resources
C:\Users\killjoyme\source\repos\WindowsF\Debug\WindowsF.MyForm2.resources
C:\Users\killjoyme\source\repos\WindowsF\Debug\WindowsF.MyForm3.resources
C:\Users\killjoyme\source\repos\WindowsF\Debug\WindowsF.MyForm4.resources
C:\Users\killjoyme\source\repos\WindowsF\Debug\WindowsF.MyForm5.resources
C:\Users\killjoyme\source\repos\WindowsF\Debug\WindowsF.MyForm6.resources
^C:\Users\killjoyme\source\repos\WindowsF\WindowsF.vcxproj
C:\Users\killjoyme\source\repos\WindowsF\Debug\WindowsF.MyForm.resources
C:\Users\killjoyme\source\repos\WindowsF\Debug\WindowsF.MyForm1.resources
C:\Users\killjoyme\source\repos\WindowsF\Debug\WindowsF.MyForm2.resources
C:\Users\killjoyme\source\repos\WindowsF\Debug\WindowsF.MyForm3.resources
C:\Users\killjoyme\source\repos\WindowsF\Debug\WindowsF.MyForm4.resources
C:\Users\killjoyme\source\repos\WindowsF\Debug\WindowsF.MyForm5.resources
C:\Users\killjoyme\source\repos\WindowsF\Debug\WindowsF.MyForm6.resources
^C:\Users\killjoyme\source\repos\WindowsF\WindowsF.vcxproj
C:\Users\killjoyme\source\repos\WindowsF\Debug\WindowsF.MyForm.resources
C:\Users\killjoyme\source\repos\WindowsF\Debug\WindowsF.MyForm1.resources
C:\Users\killjoyme\source\repos\WindowsF\Debug\WindowsF.MyForm2.resources
C:\Users\killjoyme\source\repos\WindowsF\Debug\WindowsF.MyForm3.resources
C:\Users\killjoyme\source\repos\WindowsF\Debug\WindowsF.MyForm4.resources
C:\Users\killjoyme\source\repos\WindowsF\Debug\WindowsF.MyForm5.resources
C:\Users\killjoyme\source\repos\WindowsF\Debug\WindowsF.MyForm6.resources
^C:\Users\killjoyme\source\repos\WindowsF\WindowsF.vcxproj
C:\Users\killjoyme\source\repos\WindowsF\Debug\WindowsF.MyForm.resources
C:\Users\killjoyme\source\repos\WindowsF\Debug\WindowsF.MyForm1.resources
C:\Users\killjoyme\source\repos\WindowsF\Debug\WindowsF.MyForm2.resources
C:\Users\killjoyme\source\repos\WindowsF\Debug\WindowsF.MyForm3.resources
C:\Users\killjoyme\source\repos\WindowsF\Debug\WindowsF.MyForm4.resources
C:\Users\killjoyme\source\repos\WindowsF\Debug\WindowsF.MyForm5.resources
C:\Users\killjoyme\source\repos\WindowsF\Debug\WindowsF.MyForm6.resources
^C:\Users\killjoyme\source\repos\WindowsF\WindowsF.vcxproj
C:\Users\killjoyme\source\repos\WindowsF\Debug\WindowsF.MyForm.resources
C:\Users\killjoyme\source\repos\WindowsF\Debug\WindowsF.MyForm1.resources
C:\Users\killjoyme\source\repos\WindowsF\Debug\WindowsF.MyForm2.resources
C:\Users\killjoyme\source\repos\WindowsF\Debug\WindowsF.MyForm3.resources
C:\Users\killjoyme\source\repos\WindowsF\Debug\WindowsF.MyForm4.resources
C:\Users\killjoyme\source\repos\WindowsF\Debug\WindowsF.MyForm5.resources
C:\Users\killjoyme\source\repos\WindowsF\Debug\WindowsF.MyForm6.resources
^C:\Users\killjoyme\source\repos\WindowsF\WindowsF.vcxproj
C:\Users\killjoyme\source\repos\WindowsF\Debug\WindowsF.MyForm.resources
C:\Users\killjoyme\source\repos\WindowsF\Debug\WindowsF.MyForm1.resources
C:\Users\killjoyme\source\repos\WindowsF\Debug\WindowsF.MyForm2.resources
C:\Users\killjoyme\source\repos\WindowsF\Debug\WindowsF.MyForm3.resources
C:\Users\killjoyme\source\repos\WindowsF\Debug\WindowsF.MyForm4.resources
C:\Users\killjoyme\source\repos\WindowsF\Debug\WindowsF.MyForm5.resources
C:\Users\killjoyme\source\repos\WindowsF\Debug\WindowsF.MyForm6.resources
^C:\Users\killjoyme\source\repos\WindowsF\WindowsF.vcxproj
C:\Users\killjoyme\source\repos\WindowsF\Debug\WindowsF.MyForm.resources
C:\Users\killjoyme\source\repos\WindowsF\Debug\WindowsF.MyForm1.resources
C:\Users\killjoyme\source\repos\WindowsF\Debug\WindowsF.MyForm2.resources
C:\Users\killjoyme\source\repos\WindowsF\Debug\WindowsF.MyForm3.resources
C:\Users\killjoyme\source\repos\WindowsF\Debug\WindowsF.MyForm4.resources
C:\Users\killjoyme\source\repos\WindowsF\Debug\WindowsF.MyForm5.resources
C:\Users\killjoyme\source\repos\WindowsF\Debug\WindowsF.MyForm6.resources
^C:\Users\killjoyme\source\repos\WindowsF\WindowsF.vcxproj
C:\Users\killjoyme\source\repos\WindowsF\Debug\WindowsF.MyForm.resources
C:\Users\killjoyme\source\repos\WindowsF\Debug\WindowsF.MyForm1.resources
C:\Users\killjoyme\source\repos\WindowsF\Debug\WindowsF.MyForm2.resources
C:\Users\killjoyme\source\repos\WindowsF\Debug\WindowsF.MyForm3.resources
C:\Users\killjoyme\source\repos\WindowsF\Debug\WindowsF.MyForm4.resources
C:\Users\killjoyme\source\repos\WindowsF\Debug\WindowsF.MyForm5.resources
C:\Users\killjoyme\source\repos\WindowsF\Debug\WindowsF.MyForm6.resources
^C:\Users\killjoyme\source\repos\WindowsF\WindowsF.vcxproj
C:\Users\killjoyme\source\repos\WindowsF\Debug\WindowsF.MyForm.resources
C:\Users\killjoyme\source\repos\WindowsF\Debug\WindowsF.MyForm1.resources
C:\Users\killjoyme\source\repos\WindowsF\Debug\WindowsF.MyForm2.resources
C:\Users\killjoyme\source\repos\WindowsF\Debug\WindowsF.MyForm3.resources
C:\Users\killjoyme\source\repos\WindowsF\Debug\WindowsF.MyForm4.resources
C:\Users\killjoyme\source\repos\WindowsF\Debug\WindowsF.MyForm5.resources
C:\Users\killjoyme\source\repos\WindowsF\Debug\WindowsF.MyForm6.resources
^C:\Users\killjoyme\source\repos\WindowsF\WindowsF.vcxproj
C:\Users\killjoyme\source\repos\WindowsF\Debug\WindowsF.MyForm.resources
C:\Users\killjoyme\source\repos\WindowsF\Debug\WindowsF.MyForm1.resources
C:\Users\killjoyme\source\repos\WindowsF\Debug\WindowsF.MyForm2.resources
C:\Users\killjoyme\source\repos\WindowsF\Debug\WindowsF.MyForm3.resources
C:\Users\killjoyme\source\repos\WindowsF\Debug\WindowsF.MyForm4.resources
C:\Users\killjoyme\source\repos\WindowsF\Debug\WindowsF.MyForm5.resources
C:\Users\killjoyme\source\repos\WindowsF\Debug\WindowsF.MyForm6.resources
^C:\Users\killjoyme\source\repos\WindowsF\WindowsF.vcxproj
C:\Users\killjoyme\source\repos\WindowsF\Debug\WindowsF.MyForm.resources
C:\Users\killjoyme\source\repos\WindowsF\Debug\WindowsF.MyForm1.resources
C:\Users\killjoyme\source\repos\WindowsF\Debug\WindowsF.MyForm2.resources
C:\Users\killjoyme\source\repos\WindowsF\Debug\WindowsF.MyForm3.resources
C:\Users\killjoyme\source\repos\WindowsF\Debug\WindowsF.MyForm4.resources
C:\Users\killjoyme\source\repos\WindowsF\Debug\WindowsF.MyForm5.resources
C:\Users\killjoyme\source\repos\WindowsF\Debug\WindowsF.MyForm6.resources
^C:\Users\killjoyme\source\repos\WindowsF\WindowsF.vcxproj
C:\Users\killjoyme\source\repos\WindowsF\Debug\WindowsF.MyForm.resources
C:\Users\killjoyme\source\repos\WindowsF\Debug\WindowsF.MyForm1.resources
C:\Users\killjoyme\source\repos\WindowsF\Debug\WindowsF.MyForm2.resources
C:\Users\killjoyme\source\repos\WindowsF\Debug\WindowsF.MyForm3.resources
C:\Users\killjoyme\source\repos\WindowsF\Debug\WindowsF.MyForm4.resources
C:\Users\killjoyme\source\repos\WindowsF\Debug\WindowsF.MyForm5.resources
C:\Users\killjoyme\source\repos\WindowsF\Debug\WindowsF.MyForm6.resources
^C:\Users\killjoyme\source\repos\WindowsF\WindowsF.vcxproj
C:\Users\killjoyme\source\repos\WindowsF\Debug\WindowsF.MyForm.resources
C:\Users\killjoyme\source\repos\WindowsF\Debug\WindowsF.MyForm1.resources
C:\Users\killjoyme\source\repos\WindowsF\Debug\WindowsF.MyForm2.resources
C:\Users\killjoyme\source\repos\WindowsF\Debug\WindowsF.MyForm3.resources
C:\Users\killjoyme\source\repos\WindowsF\Debug\WindowsF.MyForm4.resources
C:\Users\killjoyme\source\repos\WindowsF\Debug\WindowsF.MyForm5.resources
C:\Users\killjoyme\source\repos\WindowsF\Debug\WindowsF.MyForm6.resources
^C:\Users\killjoyme\source\repos\WindowsF\WindowsF.vcxproj
C:\Users\killjoyme\source\repos\WindowsF\Debug\WindowsF.MyForm.resources
C:\Users\killjoyme\source\repos\WindowsF\Debug\WindowsF.MyForm1.resources
C:\Users\killjoyme\source\repos\WindowsF\Debug\WindowsF.MyForm2.resources
C:\Users\killjoyme\source\repos\WindowsF\Debug\WindowsF.MyForm3.resources
C:\Users\killjoyme\source\repos\WindowsF\Debug\WindowsF.MyForm4.resources
C:\Users\killjoyme\source\repos\WindowsF\Debug\WindowsF.MyForm5.resources
C:\Users\killjoyme\source\repos\WindowsF\Debug\WindowsF.MyForm6.resources
^C:\Users\killjoyme\source\repos\WindowsF\WindowsF.vcxproj
C:\Users\killjoyme\source\repos\WindowsF\Debug\WindowsF.MyForm.resources
C:\Users\killjoyme\source\repos\WindowsF\Debug\WindowsF.MyForm1.resources
C:\Users\killjoyme\source\repos\WindowsF\Debug\WindowsF.MyForm2.resources
C:\Users\killjoyme\source\repos\WindowsF\Debug\WindowsF.MyForm3.resources
C:\Users\killjoyme\source\repos\WindowsF\Debug\WindowsF.MyForm4.resources
C:\Users\killjoyme\source\repos\WindowsF\Debug\WindowsF.MyForm5.resources
C:\Users\killjoyme\source\repos\WindowsF\Debug\WindowsF.MyForm6.resources
^C:\Users\killjoyme\source\repos\WindowsF\WindowsF.vcxproj
C:\Users\killjoyme\source\repos\WindowsF\Debug\WindowsF.MyForm.resources
C:\Users\killjoyme\source\repos\WindowsF\Debug\WindowsF.MyForm1.resources
C:\Users\killjoyme\source\repos\WindowsF\Debug\WindowsF.MyForm2.resources
C:\Users\killjoyme\source\repos\WindowsF\Debug\WindowsF.MyForm3.resources
C:\Users\killjoyme\source\repos\WindowsF\Debug\WindowsF.MyForm4.resources
C:\Users\killjoyme\source\repos\WindowsF\Debug\WindowsF.MyForm5.resources
C:\Users\killjoyme\source\repos\WindowsF\Debug\WindowsF.MyForm6.resources
^C:\Users\killjoyme\source\repos\WindowsF\WindowsF.vcxproj
C:\Users\killjoyme\source\repos\WindowsF\Debug\WindowsF.MyForm.resources
C:\Users\killjoyme\source\repos\WindowsF\Debug\WindowsF.MyForm1.resources
C:\Users\killjoyme\source\repos\WindowsF\Debug\WindowsF.MyForm2.resources
C:\Users\killjoyme\source\repos\WindowsF\Debug\WindowsF.MyForm3.resources
C:\Users\killjoyme\source\repos\WindowsF\Debug\WindowsF.MyForm4.resources
C:\Users\killjoyme\source\repos\WindowsF\Debug\WindowsF.MyForm5.resources
C:\Users\killjoyme\source\repos\WindowsF\Debug\WindowsF.MyForm6.resources
